# average=2.415000e-01
# standard deviation=2.093448e+02
0 1.000000e+00
1 -2.432397e-02
2 -9.804031e-02
3 -9.705262e-02
4 -2.399825e-02
5 -5.749916e-02
6 -7.281727e-03
7 -1.008678e-02
8 -3.838173e-02
9 1.651902e-03
10 3.445725e-03
11 -1.749111e-02
12 -1.478749e-02
13 2.528219e-02
14 -4.704389e-04
15 -4.544877e-03
16 2.323809e-02
17 1.196530e-02
18 -3.522497e-02
19 -7.665836e-03
20 2.139848e-02
21 7.214732e-03
22 8.636032e-03
23 -2.643818e-02
24 -6.115085e-02
25 -1.825408e-02
26 -2.132360e-02
27 5.729683e-03
28 1.326567e-03
29 -1.965041e-02
30 2.033429e-02
31 3.143993e-02
32 2.320322e-02
33 5.406409e-03
34 -3.394359e-02
35 1.563477e-02
36 -2.207142e-02
37 6.380258e-03
38 -1.579131e-02
39 -2.536875e-02
40 -2.036918e-03
41 -1.568573e-02
42 4.181687e-02
43 -3.779016e-02
44 3.319024e-02
45 1.802586e-02
46 9.145347e-03
47 -6.477751e-03
48 4.408268e-03
49 -2.616650e-03
50 2.195780e-02
51 -3.764628e-03
52 -2.516849e-02
53 -5.667647e-03
54 2.776799e-03
55 3.054559e-03
56 -2.272972e-02
57 -2.188719e-02
58 -2.601775e-02
59 -2.582706e-02
60 -1.748971e-02
61 7.112971e-03
62 -1.551865e-02
63 2.952930e-02
64 1.889944e-02
65 -1.505744e-02
66 2.108536e-02
67 3.413316e-03
68 1.716114e-04
69 -9.727070e-04
70 3.590359e-02
71 -1.099558e-02
72 7.101934e-04
73 -1.743236e-02
74 -5.873009e-03
75 -1.527794e-02
76 -3.382536e-02
77 -6.404091e-03
78 6.870146e-03
79 2.750606e-02
80 -2.086839e-02
81 1.343974e-02
82 -1.149086e-02
83 3.184532e-02
84 5.713541e-03
85 -3.870476e-02
86 3.841370e-02
87 -2.329655e-02
88 -1.186270e-03
89 -1.719189e-02
90 1.107669e-02
91 7.873212e-03
92 9.736257e-03
93 -2.407033e-02
94 2.262086e-02
95 2.152617e-02
96 8.454974e-03
97 -3.357963e-02
98 -2.189348e-02
99 5.025929e-02
100 -3.932610e-03
