# average=9.193522e-01
# standard deviation=2.356277e-01
0 1.000000e+00
1 9.896418e-01
2 9.592189e-01
3 9.102192e-01
4 8.448749e-01
5 7.658743e-01
6 6.760719e-01
7 5.782480e-01
8 4.749406e-01
9 3.683557e-01
10 2.603462e-01
11 1.524465e-01
12 4.594375e-02
13 -5.803041e-02
14 -1.584063e-01
15 -2.540969e-01
16 -3.439481e-01
17 -4.267234e-01
18 -5.011229e-01
19 -5.661302e-01
20 -6.207917e-01
21 -6.643508e-01
22 -6.962531e-01
23 -7.162133e-01
24 -7.242907e-01
25 -7.209060e-01
26 -7.067931e-01
27 -6.829001e-01
28 -6.502721e-01
29 -6.099417e-01
30 -5.628483e-01
31 -5.097946e-01
32 -4.514397e-01
33 -3.883215e-01
34 -3.208999e-01
35 -2.496123e-01
36 -1.749637e-01
37 -9.761298e-02
38 -1.842213e-02
39 6.151939e-02
40 1.409090e-01
41 2.182755e-01
42 2.920492e-01
43 3.606541e-01
44 4.226124e-01
45 4.766535e-01
46 5.218094e-01
47 5.574765e-01
48 5.834267e-01
49 5.997641e-01
50 6.068357e-01
51 6.051206e-01
52 5.951227e-01
53 5.772893e-01
54 5.519651e-01
55 5.193899e-01
56 4.797370e-01
57 4.331807e-01
58 3.799765e-01
59 3.205393e-01
60 2.554984e-01
61 1.857146e-01
62 1.122524e-01
63 3.632207e-02
64 -4.078735e-02
65 -1.177689e-01
66 -1.933476e-01
67 -2.663177e-01
68 -3.355704e-01
69 -4.001110e-01
70 -4.590645e-01
71 -5.116675e-01
72 -5.572458e-01
73 -5.951861e-01
74 -6.249061e-01
75 -6.458354e-01
76 -6.574123e-01
77 -6.591046e-01
78 -6.504538e-01
79 -6.311365e-01
80 -6.010283e-01
81 -5.602561e-01
82 -5.092284e-01
83 -4.486383e-01
84 -3.794389e-01
85 -3.027919e-01
86 -2.199977e-01
87 -1.324287e-01
88 -4.149121e-02
89 5.138414e-02
90 1.447392e-01
91 2.370837e-01
92 3.268938e-01
93 4.126157e-01
94 4.926769e-01
95 5.655085e-01
96 6.295816e-01
97 6.834522e-01
98 7.258135e-01
99 7.555507e-01
100 7.717984e-01
