    86.00000        141.0000    
    141.0000        95.00000    
    95.00000        41.00000    
    41.00000        22.00000    
    22.00000        21.00000    
    21.00000        32.00000    
    32.00000        72.00000    
    72.00000        138.0000    
    138.0000        111.0000    
    111.0000        48.00000    
    48.00000        23.00000    
    23.00000        19.00000    
    19.00000        27.00000    
    27.00000        59.00000    
    59.00000        129.0000    
    129.0000        129.0000    
    129.0000        58.00000    
    58.00000        27.00000    
    27.00000        19.00000    
    19.00000        24.00000    
    24.00000        46.00000    
    46.00000        112.0000    
    112.0000        144.0000    
    144.0000        73.00000    
    73.00000        30.00000    
    30.00000        20.00000    
    20.00000        19.00000    
    19.00000        37.00000    
    37.00000        92.00000    
    92.00000        152.0000    
    152.0000        93.00000    
    93.00000        36.00000    
    36.00000        20.00000    
    20.00000        18.00000    
    18.00000        29.00000    
    29.00000        71.00000    
    71.00000        146.0000    
    146.0000        117.0000    
    117.0000        46.00000    
    46.00000        23.00000    
    23.00000        18.00000    
    18.00000        22.00000    
    22.00000        52.00000    
    52.00000        128.0000    
    128.0000        142.0000    
    142.0000        62.00000    
    62.00000        26.00000    
    26.00000        17.00000    
    17.00000        19.00000    
    19.00000        37.00000    
    37.00000        100.0000    
    100.0000        158.0000    
    158.0000        86.00000    
    86.00000        32.00000    
    32.00000        17.00000    
    17.00000        17.00000    
    17.00000        27.00000    
    27.00000        72.00000    
    72.00000        154.0000    
    154.0000        118.0000    
    118.0000        43.00000    
    43.00000        20.00000    
    20.00000        15.00000    
    15.00000        21.00000    
    21.00000        47.00000    
    47.00000        128.0000    
    128.0000        150.0000    
    150.0000        63.00000    
    63.00000        24.00000    
    24.00000        16.00000    
    16.00000        17.00000    
    17.00000        33.00000    
    33.00000        92.00000    
    92.00000        166.0000    
    166.0000        95.00000    
    95.00000        33.00000    
    33.00000        16.00000    
    16.00000        14.00000    
    14.00000        22.00000    
    22.00000        58.00000    
    58.00000        149.0000    
    149.0000        137.0000    
    137.0000        50.00000    
    50.00000        20.00000    
    20.00000        15.00000    
    15.00000        16.00000    
    16.00000        35.00000    
    35.00000        106.0000    
    106.0000        169.0000    
    169.0000        82.00000    
    82.00000        28.00000    
    28.00000        15.00000    
    15.00000        14.00000    
    14.00000        23.00000    
    23.00000        65.00000    
    65.00000        160.0000    
    160.0000        133.0000    
    133.0000        45.00000    
    45.00000        18.00000    
    18.00000        14.00000    
    14.00000        16.00000    
    16.00000        36.00000    
    36.00000        111.0000    
    111.0000        176.0000    
    176.0000        80.00000    
    80.00000        26.00000    
    26.00000        14.00000    
    14.00000        13.00000    
    13.00000        20.00000    
    20.00000        60.00000    
    60.00000        163.0000    
    163.0000        140.0000    
    140.0000        45.00000    
    45.00000        18.00000    
    18.00000        12.00000    
    12.00000        14.00000    
    14.00000        30.00000    
    30.00000        98.00000    
    98.00000        185.0000    
    185.0000        93.00000    
    93.00000        28.00000    
    28.00000        14.00000    
    14.00000        12.00000    
    12.00000        17.00000    
    17.00000        46.00000    
    46.00000        145.0000    
    145.0000        167.0000    
    167.0000        58.00000    
    58.00000        19.00000    
    19.00000        11.00000    
    11.00000        12.00000    
    12.00000        21.00000    
    21.00000        68.00000    
    68.00000        183.0000    
    183.0000        132.0000    
    132.0000        38.00000    
    38.00000        15.00000    
    15.00000        11.00000    
    11.00000        13.00000    
    13.00000        26.00000    
    26.00000        93.00000    
    93.00000        202.0000    
    202.0000        100.0000    
    100.0000        27.00000    
    27.00000        12.00000    
    12.00000        10.00000    
    10.00000        13.00000    
    13.00000        30.00000    
    30.00000        114.0000    
    114.0000        206.0000    
    206.0000        82.00000    
    82.00000        21.00000    
    21.00000        11.00000    
    11.00000        9.000000    
    9.000000        10.00000    
    10.00000        30.00000    
    30.00000        120.0000    
    120.0000        215.0000    
    215.0000        77.00000    
    77.00000        20.00000    
    20.00000        10.00000    
    10.00000        8.000000    
    8.000000        9.000000    
    9.000000        21.00000    
    21.00000        95.00000    
    95.00000        234.0000    
    234.0000        99.00000    
    99.00000        22.00000    
    22.00000        9.000000    
    9.000000        8.000000    
    8.000000        7.000000    
    7.000000        9.000000    
    9.000000        35.00000    
    35.00000        176.0000    
    176.0000        215.0000    
    215.0000        46.00000    
    46.00000        11.00000    
    11.00000        7.000000    
    7.000000        5.000000    
    5.000000        4.000000    
    4.000000        3.000000    
    3.000000        4.000000    
    4.000000        19.00000    
    19.00000        105.0000    
    105.0000        125.0000    
    125.0000        55.00000    
    55.00000        30.00000    
    30.00000        28.00000    
    28.00000        41.00000    
    41.00000        71.00000    
    71.00000        98.00000    
    98.00000        79.00000    
    79.00000        49.00000    
    49.00000        34.00000    
    34.00000        33.00000    
    33.00000        47.00000    
    47.00000        75.00000    
    75.00000        95.00000    
    95.00000        76.00000    
    76.00000        48.00000    
    48.00000        34.00000    
    34.00000        35.00000    
    35.00000        49.00000    
    49.00000        78.00000    
    78.00000        96.00000    
    96.00000        75.00000    
    75.00000        47.00000    
    47.00000        34.00000    
    34.00000        34.00000    
    34.00000        49.00000    
    49.00000        81.00000    
    81.00000        99.00000    
    99.00000        76.00000    
    76.00000        46.00000    
    46.00000        32.00000    
    32.00000        33.00000    
    33.00000        49.00000    
    49.00000        83.00000    
    83.00000        101.0000    
    101.0000        74.00000    
    74.00000        44.00000    
    44.00000        32.00000    
    32.00000        33.00000    
    33.00000        50.00000    
    50.00000        85.00000    
    85.00000        103.0000    
    103.0000        73.00000    
    73.00000        43.00000    
    43.00000        30.00000    
    30.00000        31.00000    
    31.00000        49.00000    
    49.00000        85.00000    
    85.00000        106.0000    
    106.0000        74.00000    
    74.00000        43.00000    
    43.00000        31.00000    
    31.00000        31.00000    
    31.00000        49.00000    
    49.00000        87.00000    
    87.00000        109.0000    
    109.0000        76.00000    
    76.00000        41.00000    
    41.00000        29.00000    
    29.00000        30.00000    
    30.00000        47.00000    
    47.00000        87.00000    
    87.00000        110.0000    
    110.0000        76.00000    
    76.00000        41.00000    
    41.00000        28.00000    
    28.00000        30.00000    
    30.00000        47.00000    
    47.00000        88.00000    
    88.00000        114.0000    
    114.0000        79.00000    
    79.00000        41.00000    
    41.00000        28.00000    
    28.00000        28.00000    
    28.00000        45.00000    
    45.00000        86.00000    
    86.00000        117.0000    
    117.0000        82.00000    
    82.00000        42.00000    
    42.00000        26.00000    
    26.00000        26.00000    
    26.00000        43.00000    
    43.00000        84.00000    
    84.00000        119.0000    
    119.0000        85.00000    
    85.00000        42.00000    
    42.00000        26.00000    
    26.00000        25.00000    
    25.00000        39.00000    
    39.00000        80.00000    
    80.00000        121.0000    
    121.0000        90.00000    
    90.00000        43.00000    
    43.00000        26.00000    
    26.00000        24.00000    
    24.00000        36.00000    
    36.00000        76.00000    
    76.00000        123.0000    
    123.0000        96.00000    
    96.00000        46.00000    
    46.00000        26.00000    
    26.00000        23.00000    
    23.00000        35.00000    
    35.00000        72.00000    
    72.00000        123.0000    
    123.0000        102.0000    
    102.0000        50.00000    
    50.00000        27.00000    
    27.00000        22.00000    
    22.00000        31.00000    
    31.00000        64.00000    
    64.00000        121.0000    
    121.0000        110.0000    
    110.0000        53.00000    
    53.00000        27.00000    
    27.00000        21.00000    
    21.00000        28.00000    
    28.00000        57.00000    
    57.00000        117.0000    
    117.0000        120.0000    
    120.0000        59.00000    
    59.00000        28.00000    
    28.00000        20.00000    
    20.00000        25.00000    
    25.00000        49.00000    
    49.00000        109.0000    
    109.0000        128.0000    
    128.0000        68.00000    
    68.00000        31.00000    
    31.00000        20.00000    
    20.00000        23.00000    
    23.00000        43.00000    
    43.00000        98.00000    
    98.00000        135.0000    
    135.0000        77.00000    
    77.00000        34.00000    
    34.00000        22.00000    
    22.00000        22.00000    
    22.00000        36.00000    
    36.00000        86.00000    
    86.00000        139.0000    
    139.0000        91.00000    
    91.00000        38.00000    
    38.00000        21.00000    
    21.00000        19.00000    
    19.00000        30.00000    
    30.00000        73.00000    
    73.00000        137.0000    
    137.0000        107.0000    
    107.0000        44.00000    
    44.00000        23.00000    
    23.00000        19.00000    
    19.00000        26.00000    
    26.00000        59.00000    
    59.00000        129.0000    
    129.0000        125.0000    
    125.0000        55.00000    
    55.00000        24.00000    
    24.00000        18.00000    
    18.00000        22.00000    
    22.00000        47.00000    
    47.00000        114.0000    
    114.0000        140.0000    
    140.0000        68.00000    
    68.00000        28.00000    
    28.00000        18.00000    
    18.00000        19.00000    
    19.00000        36.00000    
    36.00000        93.00000    
    93.00000        150.0000    
    150.0000        88.00000    
    88.00000        34.00000    
    34.00000        19.00000    
    19.00000        18.00000    
    18.00000        28.00000    
    28.00000        72.00000    
    72.00000        147.0000    
    147.0000        112.0000    
    112.0000        43.00000    
    43.00000        20.00000    
    20.00000        16.00000    
    16.00000        23.00000    
    23.00000        53.00000    
    53.00000        131.0000    
    131.0000        137.0000    
    137.0000        58.00000    
    58.00000        24.00000    
    24.00000        16.00000    
    16.00000        19.00000    
    19.00000        38.00000    
    38.00000        104.0000    
    104.0000        156.0000    
    156.0000        80.00000    
    80.00000        30.00000    
    30.00000        17.00000    
    17.00000        16.00000    
    16.00000        28.00000    
    28.00000        75.00000    
    75.00000        156.0000    
    156.0000        112.0000    
    112.0000        40.00000    
    40.00000        18.00000    
    18.00000        15.00000    
    15.00000        21.00000    
    21.00000        51.00000    
    51.00000        132.0000    
    132.0000        145.0000    
    145.0000        59.00000    
    59.00000        22.00000    
    22.00000        15.00000    
    15.00000        17.00000    
    17.00000        32.00000    
    32.00000        96.00000    
    96.00000        164.0000    
    164.0000        89.00000    
    89.00000        30.00000    
    30.00000        16.00000    
    16.00000        14.00000    
    14.00000        24.00000    
    24.00000        62.00000    
    62.00000        153.0000    
    153.0000        130.0000    
    130.0000        46.00000    
    46.00000        19.00000    
    19.00000        13.00000    
    13.00000        17.00000    
    17.00000        37.00000    
    37.00000        113.0000    
    113.0000        165.0000    
    165.0000        75.00000    
    75.00000        25.00000    
    25.00000        14.00000    
    14.00000        13.00000    
    13.00000        24.00000    
    24.00000        68.00000    
    68.00000        164.0000    
    164.0000        123.0000    
    123.0000        40.00000    
    40.00000        17.00000    
    17.00000        13.00000    
    13.00000        16.00000    
    16.00000        38.00000    
    38.00000        118.0000    
    118.0000        170.0000    
    170.0000        71.00000    
    71.00000        24.00000    
    24.00000        13.00000    
    13.00000        12.00000    
    12.00000        22.00000    
    22.00000        65.00000    
    65.00000        167.0000    
    167.0000        129.0000    
    129.0000        40.00000    
    40.00000        16.00000    
    16.00000        12.00000    
    12.00000        14.00000    
    14.00000        33.00000    
    33.00000        107.0000    
    107.0000        182.0000    
    182.0000        81.00000    
    81.00000        24.00000    
    24.00000        12.00000    
    12.00000        11.00000    
    11.00000        17.00000    
    17.00000        51.00000    
    51.00000        156.0000    
    156.0000        155.0000    
    155.0000        49.00000    
    49.00000        17.00000    
    17.00000        11.00000    
    11.00000        11.00000    
    11.00000        23.00000    
    23.00000        77.00000    
    77.00000        189.0000    
    189.0000        115.0000    
    115.0000        32.00000    
    32.00000        13.00000    
    13.00000        9.000000    
    9.000000        12.00000    
    12.00000        30.00000    
    30.00000        107.0000    
    107.0000        197.0000    
    197.0000        82.00000    
    82.00000        23.00000    
    23.00000        10.00000    
    10.00000        9.000000    
    9.000000        12.00000    
    12.00000        36.00000    
    36.00000        134.0000    
    134.0000        192.0000    
    192.0000        64.00000    
    64.00000        18.00000    
    18.00000        10.00000    
    10.00000        8.000000    
    8.000000        13.00000    
    13.00000        37.00000    
    37.00000        148.0000    
    148.0000        195.0000    
    195.0000        58.00000    
    58.00000        16.00000    
    16.00000        9.000000    
    9.000000        8.000000    
    8.000000        10.00000    
    10.00000        29.00000    
    29.00000        132.0000    
    132.0000        220.0000    
    220.0000        67.00000    
    67.00000        15.00000    
    15.00000        8.000000    
    8.000000        6.000000    
    6.000000        7.000000    
    7.000000        14.00000    
    14.00000        66.00000    
    66.00000        237.0000    
    237.0000        137.0000    
    137.0000        25.00000    
    25.00000        9.000000    
    9.000000        6.000000    
    6.000000        5.000000    
    5.000000        4.000000    
    4.000000        5.000000    
    5.000000        25.00000    
    25.00000        165.0000    
    165.0000        233.0000    
    233.0000        51.00000    
    51.00000        12.00000    
    12.00000        7.000000    
    7.000000        7.000000    
    7.000000        7.000000    
    7.000000        18.00000    
    18.00000        80.00000    
    80.00000        201.0000    
    201.0000        109.0000    
    109.0000        29.00000    
    29.00000        12.00000    
    12.00000        10.00000    
    10.00000        14.00000    
    14.00000        38.00000    
    38.00000        128.0000    
    128.0000        169.0000    
    169.0000        63.00000    
    63.00000        20.00000    
    20.00000        11.00000    
    11.00000        11.00000    
    11.00000        23.00000    
    23.00000        74.00000    
    74.00000        173.0000    
    173.0000        114.0000    
    114.0000        34.00000    
    34.00000        14.00000    
    14.00000        11.00000    
    11.00000        14.00000    
    14.00000        37.00000    
    37.00000        122.0000    
    122.0000        172.0000    
    172.0000        67.00000    
    67.00000        21.00000    
    21.00000        11.00000    
    11.00000        11.00000    
    11.00000        20.00000    
    20.00000        64.00000    
    64.00000        169.0000    
    169.0000        131.0000    
    131.0000        39.00000    
    39.00000        13.00000    
    13.00000        9.000000    
    9.000000        12.00000    
    12.00000        28.00000    
    28.00000        100.0000    
    100.0000        188.0000    
    188.0000        88.00000    
    88.00000        25.00000    
    25.00000        11.00000    
    11.00000        10.00000    
    10.00000        14.00000    
    14.00000        41.00000    
    41.00000        141.0000    
    141.0000        176.0000    
    176.0000        57.00000    
    57.00000        17.00000    
    17.00000        10.00000    
    10.00000        10.00000    
    10.00000        16.00000    
    16.00000        56.00000    
    56.00000        175.0000    
    175.0000        149.0000    
    149.0000        41.00000    
    41.00000        14.00000    
    14.00000        8.000000    
    8.000000        9.000000    
    9.000000        18.00000    
    18.00000        67.00000    
    67.00000        196.0000    
    196.0000        130.0000    
    130.0000        32.00000    
    32.00000        11.00000    
    11.00000        8.000000    
    8.000000        7.000000    
    7.000000        17.00000    
    17.00000        66.00000    
    66.00000        207.0000    
    207.0000        131.0000    
    131.0000        30.00000    
    30.00000        10.00000    
    10.00000        7.000000    
    7.000000        6.000000    
    6.000000        12.00000    
    12.00000        48.00000    
    48.00000        193.0000    
    193.0000        172.0000    
    172.0000        39.00000    
    39.00000        11.00000    
    11.00000        7.000000    
    7.000000        6.000000    
    6.000000        6.000000    
    6.000000        16.00000    
    16.00000        86.00000    
    86.00000        255.0000    
    255.0000        107.0000    
    107.0000        19.00000    
    19.00000        8.000000    
    8.000000        5.000000    
    5.000000        4.000000    
    4.000000        3.000000    
    3.000000        2.000000    
    2.000000        2.000000    
    2.000000        7.000000    
    7.000000        23.00000    
    23.00000        8.000000    
    8.000000        6.000000    
    6.000000        8.000000    
    8.000000        16.00000    
    16.00000        33.00000    
    33.00000        57.00000    
    57.00000        65.00000    
    65.00000        56.00000    
    56.00000        46.00000    
    46.00000        46.00000    
    46.00000        54.00000    
    54.00000        64.00000    
    64.00000        66.00000    
    66.00000        59.00000    
    59.00000        49.00000    
    49.00000        46.00000    
    46.00000        48.00000    
    48.00000        58.00000    
    58.00000        67.00000    
    67.00000        67.00000    
    67.00000        60.00000    
    60.00000        50.00000    
    50.00000        47.00000    
    47.00000        51.00000    
    51.00000        60.00000    
    60.00000        69.00000    
    69.00000        68.00000    
    68.00000        58.00000    
    58.00000        50.00000    
    50.00000        46.00000    
    46.00000        52.00000    
    52.00000        61.00000    
    61.00000        71.00000    
    71.00000        68.00000    
    68.00000        58.00000    
    58.00000        48.00000    
    48.00000        46.00000    
    46.00000        53.00000    
    53.00000        64.00000    
    64.00000        72.00000    
    72.00000        68.00000    
    68.00000        56.00000    
    56.00000        47.00000    
    47.00000        45.00000    
    45.00000        53.00000    
    53.00000        65.00000    
    65.00000        73.00000    
    73.00000        67.00000    
    67.00000        54.00000    
    54.00000        46.00000    
    46.00000        46.00000    
    46.00000        55.00000    
    55.00000        67.00000    
    67.00000        74.00000    
    74.00000        66.00000    
    66.00000        54.00000    
    54.00000        44.00000    
    44.00000        46.00000    
    46.00000        55.00000    
    55.00000        70.00000    
    70.00000        76.00000    
    76.00000        66.00000    
    66.00000        51.00000    
    51.00000        45.00000    
    45.00000        46.00000    
    46.00000        58.00000    
    58.00000        73.00000    
    73.00000        77.00000    
    77.00000        65.00000    
    65.00000        52.00000    
    52.00000        44.00000    
    44.00000        46.00000    
    46.00000        59.00000    
    59.00000        75.00000    
    75.00000        78.00000    
    78.00000        64.00000    
    64.00000        49.00000    
    49.00000        43.00000    
    43.00000        47.00000    
    47.00000        61.00000    
    61.00000        78.00000    
    78.00000        79.00000    
    79.00000        63.00000    
    63.00000        47.00000    
    47.00000        43.00000    
    43.00000        47.00000    
    47.00000        63.00000    
    63.00000        80.00000    
    80.00000        79.00000    
    79.00000        61.00000    
    61.00000        46.00000    
    46.00000        42.00000    
    42.00000        48.00000    
    48.00000        66.00000    
    66.00000        84.00000    
    84.00000        80.00000    
    80.00000        60.00000    
    60.00000        46.00000    
    46.00000        42.00000    
    42.00000        50.00000    
    50.00000        68.00000    
    68.00000        86.00000    
    86.00000        80.00000    
    80.00000        59.00000    
    59.00000        43.00000    
    43.00000        41.00000    
    41.00000        50.00000    
    50.00000        71.00000    
    71.00000        88.00000    
    88.00000        79.00000    
    79.00000        56.00000    
    56.00000        41.00000    
    41.00000        41.00000    
    41.00000        51.00000    
    51.00000        73.00000    
    73.00000        91.00000    
    91.00000        78.00000    
    78.00000        55.00000    
    55.00000        41.00000    
    41.00000        40.00000    
    40.00000        52.00000    
    52.00000        75.00000    
    75.00000        94.00000    
    94.00000        78.00000    
    78.00000        54.00000    
    54.00000        39.00000    
    39.00000        40.00000    
    40.00000        52.00000    
    52.00000        79.00000    
    79.00000        95.00000    
    95.00000        76.00000    
    76.00000        50.00000    
    50.00000        37.00000    
    37.00000        38.00000    
    38.00000        52.00000    
    52.00000        80.00000    
    80.00000        97.00000    
    97.00000        76.00000    
    76.00000        50.00000    
    50.00000        36.00000    
    36.00000        37.00000    
    37.00000        54.00000    
    54.00000        83.00000    
    83.00000        98.00000    
    98.00000        74.00000    
    74.00000        47.00000    
    47.00000        34.00000    
    34.00000        37.00000    
    37.00000        53.00000    
    53.00000        85.00000    
    85.00000        100.0000    
    100.0000        74.00000    
    74.00000        45.00000    
    45.00000        34.00000    
    34.00000        35.00000    
    35.00000        54.00000    
    54.00000        87.00000    
    87.00000        103.0000    
    103.0000        72.00000    
    72.00000        43.00000    
    43.00000        33.00000    
    33.00000        35.00000    
    35.00000        53.00000    
    53.00000        88.00000    
    88.00000        103.0000    
    103.0000        73.00000    
    73.00000        43.00000    
    43.00000        32.00000    
    32.00000        33.00000    
    33.00000        53.00000    
    53.00000        91.00000    
    91.00000        105.0000    
    105.0000        72.00000    
    72.00000        41.00000    
    41.00000        31.00000    
    31.00000        33.00000    
    33.00000        54.00000    
    54.00000        91.00000    
    91.00000        108.0000    
    108.0000        72.00000    
    72.00000        41.00000    
    41.00000        30.00000    
    30.00000        32.00000    
    32.00000        51.00000    
    51.00000        93.00000    
    93.00000        111.0000    
    111.0000        74.00000    
    74.00000        41.00000    
    41.00000        29.00000    
    29.00000        31.00000    
    31.00000        51.00000    
    51.00000        93.00000    
    93.00000        113.0000    
    113.0000        75.00000    
    75.00000        40.00000    
    40.00000        29.00000    
    29.00000        30.00000    
    30.00000        49.00000    
    49.00000        92.00000    
    92.00000        118.0000    
    118.0000        78.00000    
    78.00000        41.00000    
    41.00000        28.00000    
    28.00000        29.00000    
    29.00000        46.00000    
    46.00000        90.00000    
    90.00000        120.0000    
    120.0000        82.00000    
    82.00000        42.00000    
    42.00000        29.00000    
    29.00000        28.00000    
    28.00000        45.00000    
    45.00000        88.00000    
    88.00000        124.0000    
    124.0000        86.00000    
    86.00000        43.00000    
    43.00000        27.00000    
    27.00000        27.00000    
    27.00000        41.00000    
    41.00000        83.00000    
    83.00000        126.0000    
    126.0000        91.00000    
    91.00000        45.00000    
    45.00000        27.00000    
    27.00000        26.00000    
    26.00000        38.00000    
    38.00000        78.00000    
    78.00000        127.0000    
    127.0000        99.00000    
    99.00000        47.00000    
    47.00000        27.00000    
    27.00000        24.00000    
    24.00000        35.00000    
    35.00000        72.00000    
    72.00000        126.0000    
    126.0000        106.0000    
    106.0000        52.00000    
    52.00000        28.00000    
    28.00000        23.00000    
    23.00000        32.00000    
    32.00000        65.00000    
    65.00000        123.0000    
    123.0000        116.0000    
    116.0000        56.00000    
    56.00000        29.00000    
    29.00000        22.00000    
    22.00000        28.00000    
    28.00000        56.00000    
    56.00000        117.0000    
    117.0000        126.0000    
    126.0000        64.00000    
    64.00000        30.00000    
    30.00000        22.00000    
    22.00000        27.00000    
    27.00000        49.00000    
    49.00000        107.0000    
    107.0000        133.0000    
    133.0000        74.00000    
    74.00000        32.00000    
    32.00000        21.00000    
    21.00000        23.00000    
    23.00000        41.00000    
    41.00000        95.00000    
    95.00000        140.0000    
    140.0000        84.00000    
    84.00000        36.00000    
    36.00000        21.00000    
    21.00000        21.00000    
    21.00000        35.00000    
    35.00000        80.00000    
    80.00000        141.0000    
    141.0000        99.00000    
    99.00000        42.00000    
    42.00000        22.00000    
    22.00000        20.00000    
    20.00000        29.00000    
    29.00000        67.00000    
    67.00000        135.0000    
    135.0000        117.0000    
    117.0000        49.00000    
    49.00000        24.00000    
    24.00000        18.00000    
    18.00000        25.00000    
    25.00000        52.00000    
    52.00000        122.0000    
    122.0000        134.0000    
    134.0000        62.00000    
    62.00000        26.00000    
    26.00000        18.00000    
    18.00000        20.00000    
    20.00000        41.00000    
    41.00000        104.0000    
    104.0000        148.0000    
    148.0000        79.00000    
    79.00000        32.00000    
    32.00000        18.00000    
    18.00000        19.00000    
    19.00000        32.00000    
    32.00000        82.00000    
    82.00000        151.0000    
    151.0000        100.0000    
    100.0000        39.00000    
    39.00000        19.00000    
    19.00000        17.00000    
    17.00000        25.00000    
    25.00000        62.00000    
    62.00000        140.0000    
    140.0000        128.0000    
    128.0000        52.00000    
    52.00000        22.00000    
    22.00000        17.00000    
    17.00000        21.00000    
    21.00000        44.00000    
    44.00000        116.0000    
    116.0000        150.0000    
    150.0000        71.00000    
    71.00000        27.00000    
    27.00000        18.00000    
    18.00000        18.00000    
    18.00000        32.00000    
    32.00000        88.00000    
    88.00000        159.0000    
    159.0000        98.00000    
    98.00000        36.00000    
    36.00000        19.00000    
    19.00000        16.00000    
    16.00000        25.00000    
    25.00000        61.00000    
    61.00000        146.0000    
    146.0000        132.0000    
    132.0000        52.00000    
    52.00000        21.00000    
    21.00000        17.00000    
    17.00000        19.00000    
    19.00000        41.00000    
    41.00000        113.0000    
    113.0000        161.0000    
    161.0000        76.00000    
    76.00000        28.00000    
    28.00000        16.00000    
    16.00000        16.00000    
    16.00000        28.00000    
    28.00000        77.00000    
    77.00000        163.0000    
    163.0000        114.0000    
    114.0000        39.00000    
    39.00000        19.00000    
    19.00000        15.00000    
    15.00000        20.00000    
    20.00000        47.00000    
    47.00000        132.0000    
    132.0000        156.0000    
    156.0000        62.00000    
    62.00000        24.00000    
    24.00000        15.00000    
    15.00000        16.00000    
    16.00000        30.00000    
    30.00000        86.00000    
    86.00000        173.0000    
    173.0000        102.0000    
    102.0000        34.00000    
    34.00000        16.00000    
    16.00000        13.00000    
    13.00000        19.00000    
    19.00000        50.00000    
    50.00000        141.0000    
    141.0000        154.0000    
    154.0000        57.00000    
    57.00000        21.00000    
    21.00000        13.00000    
    13.00000        14.00000    
    14.00000        27.00000    
    27.00000        87.00000    
    87.00000        179.0000    
    179.0000        103.0000    
    103.0000        33.00000    
    33.00000        15.00000    
    15.00000        12.00000    
    12.00000        18.00000    
    18.00000        45.00000    
    45.00000        136.0000    
    136.0000        166.0000    
    166.0000        61.00000    
    61.00000        20.00000    
    20.00000        12.00000    
    12.00000        13.00000    
    13.00000        23.00000    
